com\mycompany\Facade\RemittanceFacade.class
com\mycompany\Facade\AbstractFacade.class
com\mycompany\Controller\RemittanceTrailController.class
com\mycompany\Controller\RemittanceController$RemittanceControllerConverter.class
com\mycompany\Controller\AppuserController.class
com\mycompany\Entity\Appuser.class
com\mycompany\Entity\Device.class
com\mycompany\Entity\CfgRemittanceStatus_.class
com\mycompany\Controller\AppuserController$1.class
com\mycompany\Controller\CfgRemittanceStatusController.class
com\mycompany\Controller\CfgRemittanceStatusController$1.class
com\mycompany\Entity\CfgRemittanceStatus.class
com\mycompany\Controller\DeviceController$1.class
com\mycompany\Facade\ConstantFacade.class
com\mycompany\Entity\RemittanceTrail.class
com\mycompany\Controller\DeviceController$DeviceControllerConverter.class
com\mycompany\Facade\AppuserFacade.class
com\mycompany\Controller\RemittanceTrailController$RemittanceTrailControllerConverter.class
com\mycompany\Controller\ConstantController.class
com\mycompany\Entity\Appuser_.class
com\mycompany\Controller\ConstantController$ConstantControllerConverter.class
com\mycompany\Controller\RemittanceController$1.class
com\mycompany\Entity\RemittanceTrail_.class
com\mycompany\Controller\RemittanceTrailController$1.class
com\mycompany\Entity\Remittance.class
com\mycompany\Controller\CfgRemittanceStatusController$CfgRemittanceStatusControllerConverter.class
com\mycompany\Controller\AppuserController$AppuserControllerConverter.class
com\mycompany\Facade\DeviceFacade.class
com\mycompany\Entity\Device_.class
com\mycompany\Controller\util\PaginationHelper.class
com\mycompany\Controller\ConstantController$1.class
com\mycompany\Controller\RemittanceController.class
com\mycompany\Entity\Constant.class
com\mycompany\Controller\DeviceController.class
com\mycompany\Entity\Remittance_.class
com\mycompany\Facade\CfgRemittanceStatusFacade.class
com\mycompany\Entity\Constant_.class
com\mycompany\Controller\util\JsfUtil.class
com\mycompany\Facade\RemittanceTrailFacade.class
